Perform an estimation of the bandwidth given a list of \(H_0\) and \(L_0\) for the smoothing of curves. — estimate_b_list • denoisr
…
#> * `` -> ...1
#> * `` -> ...2
#> * `` -> ...3
#> New names:
#> * `` -> ...1
#> * `` -> ...2
#> * `` -> ...3
#> New names:
#> * `` -> ...1
#> * `` -> ...2
#> * `` -> ...3
estimate_b_list(X, H0_list = 0.5, L0_list = 1, sigma = 0.05)
#> New names:
#> * NA -> ...1
#> # A tibble: 1,000 × 1
#>       ...1
#>      <dbl>
#>  1 0.00283
#>  2 0.00293
#>  3 0.00292
#>  4 0.00296
#>  5 0.00310
#>  6 0.00298
#>  7 0.00295
#>  8 0.00283
#>  9 0.00301
#> 10 0.00301
#> # … with 990 more rows
…
#> New names:
#> * `` -> ...1
#> * `` -> ...2
#> * `` -> ...3
#> New names:
#> * `` -> ...1
#> * `` -> ...2
#> * `` -> ...3
estimate_b_list(X, H0_list = c(0.2, 0.5, 0.8), L0_list = c(1, 1, 1), 
                sigma = 0.1, K = 'epanechnikov')
#> New names:
#> * NA -> ...1
#> * NA -> ...2
#> * NA -> ...3
#> # A tibble: 1,000 × 3
#>        ...1    ...2   ...3
#>       <dbl>   <dbl>  <dbl>
#>  1 0.000987 0.00582 0.0176
#>  2 0.00101  0.00592 0.0179
#>  3 0.00101  0.00590 0.0178
#>  4 0.00101  0.00592 0.0179
#>  5 0.000996 0.00586 0.0177
#>  6 0.000976 0.00577 0.0175
#>  7 0.00101  0.00592 0.0179
#>  8 0.00105  0.00608 0.0182
#>  9 0.000960 0.00571 0.0174
#> 10 0.00107  0.00615 0.0184
#> # … with 990 more rows
…
